<?xml version="1.0" encoding="UTF-8"?>
<svg xmlns="http://www.w3.org/2000/svg" width="107" height="20">
    <linearGradient id="b" x2="0" y2="100%">
        <stop offset="0" stop-color="#bbb" stop-opacity=".1"/>
        <stop offset="1" stop-opacity=".1"/>
    </linearGradient>
    <mask id="anybadge_1">
        <rect width="107" height="20" rx="3" fill="#fff"/>
    </mask>
    <g mask="url(#anybadge_1)">
        <path fill="#555" d="M0 0h40v20H0z"/>
        <path fill="#74e000" d="M40 0h67v20H40z"/>
        <path fill="url(#b)" d="M0 0h107v20H0z"/>
    </g>
    <g fill="#fff" text-anchor="middle" font-family="DejaVu Sans,Verdana,Geneva,sans-serif" font-size="11">
        <text x="21.0" y="15" fill="#010101" fill-opacity=".3">MMM</text>
        <text x="20.0" y="14">MMM</text>
    </g>
    <g fill="#fff" text-anchor="middle" font-family="DejaVu Sans,Verdana,Geneva,sans-serif" font-size="11">
        <text x="74.5" y="15" fill="#010101" fill-opacity=".3">74.2182%</text>
        <text x="73.5" y="14">74.2182%</text>
    </g>
</svg>